Factor Analysis
…
9 + 3 + 3 + 2 + 1 

## [1] 18

scores <- as.tibble(cbind(rownames(fa_5$scores[]), fa_5$scores[]))

scores$Max <- colnames(scores)[max.col(scores, ties.method = "first")]

scores

## # A tibble: 1,003 x 6
##      MR1    MR2   MR3     MR4     MR5 Max  
##    <dbl>  <dbl> <dbl>   <dbl>   <dbl> <chr>
##  1  3.09 -2.71  3.68  -1.47    0.596  MR3  
##  2  1.39  1.45  1.81   1.59   -0.955  MR3  
##  3  1.67  0.716 1.33   0.444   0.369  MR1  
##  4  1.37  0.918 2.20  -0.217   0.158  MR3  
##  5  1.80  1.94  1.03   0.200  -1.35   MR2  
##  6  1.09  1.19  2.39  -0.0228 -0.0915 MR3  
##  7  1.78  1.73  0.730  0.749  -0.276  MR1  
##  8  1.91  1.49  0.156  1.11    0.0398 MR1  
##  9  1.38  2.04  0.528  1.90    0.415  MR2  
## 10  1.87  1.23  0.819  0.0196 -1.38   MR1  
## # ... with 993 more rows
…
