Mixtures Workshop: Grouped Lasso
…
ols_beta =
  lm_from_mcp %>% 
  broom::tidy() %>% 
  dplyr::select(term, ols = estimate)

ols_v_gmcp = left_join(mcp_beta, ols_beta)

## Joining, by = "term"

ols_v_gmcp

## # A tibble: 21 x 3
##    term           mcp      ols
##    <chr>        <dbl>    <dbl>
##  1 lbx118la   0.0127  -0.0378 
##  2 lbxpcbla   0.0142   0.0256 
##  3 lbxhxcla   0.0164  -0.0560 
##  4 lbxwbcsi  -0.00627 -0.00130
##  5 lbxlypct  -0.00341 -0.00396
##  6 lbxmopct  -0.00832 -0.0119 
##  7 lbxnepct  -0.00258 -0.00411
##  8 lbxeopct  -0.00262 -0.00579
##  9 lbxbapct   0.0157   0.0106 
## 10 bmi_cat32 -0.00270 -0.0359 
## # ... with 11 more rows
…
