Factor Analysis
…
loadings %>% filter(Max == "MR4") %>% count()

## # A tibble: 1 x 1
##       n
##   <int>
## 1     2

scores <- as.tibble(cbind(rownames(fa_4_p$scores[]), fa_4_p$scores[]))

scores$Max <- colnames(scores)[max.col(scores, ties.method = "first")]

scores

## # A tibble: 1,003 x 5
##      MR1   MR3    MR2    MR4 Max  
##    <dbl> <dbl>  <dbl>  <dbl> <chr>
##  1  3.07  3.37 -0.948 -1.21  MR3  
##  2  2.28  2.34  2.20   2.40  MR4  
##  3  2.18  2.14  1.57   1.07  MR1  
##  4  2.08  2.48  1.54   0.613 MR3  
##  5  2.30  1.52  2.11   1.30  MR1  
##  6  1.95  2.46  1.70   0.984 MR3  
##  7  2.32  1.73  2.34   1.66  MR2  
##  8  2.31  1.74  2.24   1.77  MR1  
##  9  2.23  2.07  2.92   2.68  MR2  
## 10  2.09  1.07  1.46   0.658 MR1  
## # ... with 993 more rows
…
