Factor Analysis
…
loadings %>% filter(Max == "MR4") %>% count()

## # A tibble: 1 x 1
##       n
##   <int>
## 1     2

scores <- as.tibble(cbind(rownames(fa_4_p$scores[]), fa_4_p$scores[]))

scores$Max <- colnames(scores)[max.col(scores, ties.method = "first")]

scores

## # A tibble: 1,003 x 5
##      MR1   MR3    MR2    MR4 Max  
##    <dbl> <dbl>  <dbl>  <dbl> <chr>
##  1  3.07  3.37 -0.948 -1.21  MR3  
##  2  2.28  2.34  2.20   2.40  MR4  
##  3  2.18  2.14  1.57   1.07  MR1  
##  4  2.08  2.48  1.54   0.613 MR3  
##  5  2.30  1.52  2.11   1.30  MR1  
##  6  1.95  2.46  1.70   0.984 MR3  
##  7  2.32  1.73  2.34   1.66  MR2  
##  8  2.31  1.74  2.24   1.77  MR1  
##  9  2.23  2.07  2.92   2.68  MR2  
## 10  2.09  1.07  1.46   0.658 MR1  
## #  with 993 more rows
…
health_model %>% broom::tidy() %>% mutate(
  estimate = round(estimate, 4),
  std.error = round(std.error, 4),
  statistic = round(statistic, 4),
  p.value = round(p.value, 4))

## # A tibble: 22 x 5
##    term        estimate std.error statistic p.value
##    <chr>          <dbl>     <dbl>     <dbl>   <dbl>
##  1 (Intercept)   3.04      8.10       0.375  0.708 
##  2 MR1          -0.0026    0.0147    -0.175  0.861 
##  3 MR2           0.0274    0.0117     2.34   0.0196
##  4 MR3           0.0283    0.0112     2.53   0.0117
##  5 MR4          -0.0205    0.0107    -1.91   0.0563
##  6 age_cent     -0.0066    0.0007    -9.05   0     
##  7 age_sq        0         0         -0.839  0.402 
##  8 lbxwbcsi     -0.005     0.0035    -1.42   0.157 
##  9 lbxlypct     -0.0291    0.081     -0.359  0.720 
## 10 lbxmopct     -0.0343    0.081     -0.424  0.672 
## #  with 12 more rows
…
categorical %>% broom::tidy() %>% mutate(
  estimate = round(estimate, 4),
  std.error = round(std.error, 4),
  statistic = round(statistic, 4),
  p.value = round(p.value, 4))

## # A tibble: 21 x 5
##    term              estimate std.error statistic p.value
##    <chr>                <dbl>     <dbl>     <dbl>   <dbl>
##  1 (Intercept)         4.16      8.10       0.514  0.608 
##  2 as.factor(Max)MR2   0.052     0.0194     2.67   0.0076
##  3 as.factor(Max)MR3   0.0414    0.0197     2.10   0.0363
##  4 as.factor(Max)MR4  -0.0184    0.0202    -0.912  0.362 
##  5 age_cent           -0.0055    0.0005   -10.5    0     
##  6 age_sq              0         0         -1.04   0.301 
##  7 lbxwbcsi           -0.0052    0.0035    -1.48   0.140 
##  8 lbxlypct           -0.0405    0.081     -0.5    0.617 
##  9 lbxmopct           -0.0456    0.081     -0.563  0.573 
## 10 lbxnepct           -0.0398    0.081     -0.492  0.623 
## #  with 11 more rows
…
